<svg width="643" height="1045" viewBox="0 0 643 1045" fill="none" 
    xmlns="http://www.w3.org/2000/svg">
    <g opacity="0.5">
        <rect width="639" height="1054" fill="black" fill-opacity="0" transform="translate(2 -11)"/>
        <rect width="384.654" height="709.497" fill="black" fill-opacity="0" transform="translate(2 29.3164)"/>
        <rect width="384.654" height="709.497" fill="black" fill-opacity="0" transform="translate(2 29.3164)"/>
        <rect width="384.654" height="705.689" fill="black" fill-opacity="0" transform="translate(2 29.3164)"/>
        <path d="M357.809 95.4783L375.781 52.9573L319.933 29.3164L301.841 72.1179" stroke="#EDD3F2" stroke-width="3.5798" stroke-miterlimit="10"/>
        <path d="M293.507 78.531C296.107 72.3805 303.196 69.5045 309.342 72.1054L353.038 90.6015C359.182 93.2025 362.059 100.296 359.46 106.447" stroke="#EDD3F2" stroke-width="3.5798" stroke-miterlimit="10"/>
        <path d="M249.156 124.101L265.383 80.9355C266.95 76.7643 271.314 74.3509 275.679 75.2459L334.162 87.2432L380.948 120.246C386.41 124.098 388.218 131.376 385.201 137.34L310.233 285.415C306.038 293.7 297.23 298.598 287.984 297.787L245.843 294.087C242.705 293.81 239.618 293.13 236.657 292.062L217.912 285.297L201.903 279.519C196.499 277.569 193.733 271.57 195.757 266.19" stroke="#EDD3F2" stroke-width="3.5798" stroke-miterlimit="10"/>
        <path fill-rule="evenodd" clip-rule="evenodd" d="M189.188 259.717C188.513 261.17 189.227 262.89 190.735 263.433L216.821 272.833L250.982 285.163L277.393 287.029L337.672 159.034L312.416 139.623L249.156 120.77C247.555 120.293 245.85 121.097 245.2 122.637C244.443 124.423 245.391 126.47 247.244 127.047L309.51 146.504L328.746 160.563L272.232 280.981L253.172 279.787L192.572 258.296C191.244 257.829 189.78 258.444 189.188 259.717Z" fill="#EDD3F2" stroke="#EDD3F2" stroke-width="3.5798" stroke-miterlimit="10"/>
        <path d="M325.633 167.19L306.218 153.5L247.335 134.537L246.132 126.45" stroke="#EDD3F2" stroke-width="3.5798" stroke-miterlimit="10"/>
        <rect width="51.3356" height="124.844" fill="black" fill-opacity="0" transform="translate(196.71 135.075)"/>
        <path d="M196.71 259.919L202.89 255.38L201.223 247.895L207.403 243.356L205.735 235.869L211.912 231.341L210.245 223.86L216.425 219.319L214.756 211.837L220.936 207.298L219.27 199.813L225.45 195.27L223.786 187.784L229.966 183.241L228.303 175.749L234.484 171.206L232.817 163.72L238.999 159.175L237.337 151.681L243.519 147.135L241.86 139.63L248.046 135.075" stroke="#EDD3F2" stroke-width="3.5798" stroke-miterlimit="10"/>
        <rect width="51.6909" height="125.687" fill="black" fill-opacity="0" transform="translate(249.759 152.492)"/>
        <path d="M249.759 278.18L255.954 273.603L254.306 266.075L260.502 261.497L258.852 253.971L265.043 249.401L263.397 241.879L269.592 237.3L267.94 229.778L274.136 225.199L272.489 217.673L278.687 213.09L277.037 205.564L283.233 200.983L281.591 193.448L287.785 188.865L286.138 181.339L292.335 176.755L290.69 169.22L296.889 164.634L295.247 157.09L301.45 152.492" stroke="#EDD3F2" stroke-width="3.5798" stroke-miterlimit="10"/>
        <path d="M255.634 273.958L274.538 276.061" stroke="#EDD3F2" stroke-width="3.5798" stroke-miterlimit="10"/>
        <path d="M254.884 266.581L276.935 270.389" stroke="#EDD3F2" stroke-width="3.5798" stroke-miterlimit="10"/>
        <path d="M259.192 254.167L282.075 260.005" stroke="#EDD3F2" stroke-width="3.5798" stroke-miterlimit="10"/>
        <path d="M260.093 261.17L279.497 265.412" stroke="#EDD3F2" stroke-width="3.5798" stroke-miterlimit="10"/>
        <path d="M264.261 249.251L284.212 255.452" stroke="#EDD3F2" stroke-width="3.5798" stroke-miterlimit="10"/>
        <path d="M263.547 241.773L286.691 249.585" stroke="#EDD3F2" stroke-width="3.5798" stroke-miterlimit="10"/>
        <path d="M269.326 237.268L289.324 244.562" stroke="#EDD3F2" stroke-width="3.5798" stroke-miterlimit="10"/>
        <path d="M268.533 229.98L291.957 238.947" stroke="#EDD3F2" stroke-width="3.5798" stroke-miterlimit="10"/>
        <path d="M273.612 225.01L294.372 233.799" stroke="#EDD3F2" stroke-width="3.5798" stroke-miterlimit="10"/>
        <path d="M272.876 217.747L296.373 228.106" stroke="#EDD3F2" stroke-width="3.5798" stroke-miterlimit="10"/>
        <path d="M278.403 212.888L299.622 222.615" stroke="#EDD3F2" stroke-width="3.5798" stroke-miterlimit="10"/>
        <path d="M277.312 205.553L302.046 217.45" stroke="#EDD3F2" stroke-width="3.5798" stroke-miterlimit="10"/>
        <path d="M283.081 201.04L304.692 211.841" stroke="#EDD3F2" stroke-width="3.5798" stroke-miterlimit="10"/>
        <path d="M281.9 193.366L307.12 206.582" stroke="#EDD3F2" stroke-width="3.5798" stroke-miterlimit="10"/>
        <path d="M287.65 188.405L310.04 200.419" stroke="#EDD3F2" stroke-width="3.5798" stroke-miterlimit="10"/>
        <path d="M286.468 181.285L312.629 195.856" stroke="#EDD3F2" stroke-width="3.5798" stroke-miterlimit="10"/>
        <path d="M291.995 176.56L315.088 189.758" stroke="#EDD3F2" stroke-width="3.5798" stroke-miterlimit="10"/>
        <path d="M291.491 169.397L317.337 184.44" stroke="#EDD3F2" stroke-width="3.5798" stroke-miterlimit="10"/>
        <path d="M296.325 164.488L320.106 178.973" stroke="#EDD3F2" stroke-width="3.5798" stroke-miterlimit="10"/>
        <path d="M295.677 157.149L322.361 173.632" stroke="#EDD3F2" stroke-width="3.5798" stroke-miterlimit="10"/>
        <path d="M238.804 186.273L253.515 146.533L285.736 157.192L243.369 266.811L212.64 255.759L229.386 210.787" stroke="#EDD3F2" stroke-width="3.5798" stroke-miterlimit="10"/>
        <path d="M235.202 216.021L252.021 222.107L274.433 164.113L257.948 158.712L246.011 189.861" stroke="#EDD3F2" stroke-width="3.5798" stroke-miterlimit="10"/>
        <rect width="23.6505" height="20.9399" fill="black" fill-opacity="0" transform="translate(222.178 232.87)"/>
        <path d="M236.078 253.81C241.463 253.81 245.828 249.442 245.828 244.053C245.828 238.664 241.463 234.296 236.078 234.296C230.693 234.296 226.328 238.664 226.328 244.053C226.328 249.442 230.693 253.81 236.078 253.81Z" fill="#E8E2E8" stroke="#EDD3F2" stroke-width="3.5798" stroke-miterlimit="10"/>
        <path d="M231.928 252.384C237.313 252.384 241.678 248.016 241.678 242.627C241.678 237.238 237.313 232.87 231.928 232.87C226.543 232.87 222.178 237.238 222.178 242.627C222.178 248.016 226.543 252.384 231.928 252.384Z" fill="#E8E2E8" stroke="#EDD3F2" stroke-width="3.5798" stroke-miterlimit="10"/>
        <path fill-rule="evenodd" clip-rule="evenodd" d="M251.178 221.75L241.657 215.289L226.283 209.742L235.202 216.021L251.178 221.75Z" stroke="#EDD3F2" stroke-width="3.5798" stroke-miterlimit="10" stroke-linejoin="round"/>
        <path d="M226.283 209.742L235.157 186.053L250.427 191.412L241.657 215.289" stroke="#EDD3F2" stroke-width="3.5798" stroke-miterlimit="10"/>
        <path d="M251.268 191.769L261.389 197.319L252.021 222.107" stroke="#EDD3F2" stroke-width="3.5798" stroke-miterlimit="10"/>
        <path d="M334.16 87.2449L312.414 139.625L309.506 146.506" stroke="#EDD3F2" stroke-width="3.5798" stroke-miterlimit="10"/>
        <path d="M250.982 285.164L240.934 293.316" stroke="#EDD3F2" stroke-width="3.5798" stroke-miterlimit="10"/>
        <path d="M287.982 297.789L274.367 316.104" stroke="#EDD3F2" stroke-width="3.5798" stroke-miterlimit="10"/>
        <path d="M283.003 343.513C284.353 325.201 273.547 308.518 256.778 304.613C245.618 302.017 234.333 305.665 226.007 313.416C221.235 317.859 217.751 323.504 215.718 329.699C213.456 336.583 207.779 354.043 203.565 372.849L179.13 362.316L188.741 323.034C190.899 314.213 196.308 306.535 203.886 301.54L205.553 300.44" stroke="#EDD3F2" stroke-width="3.5798" stroke-miterlimit="10"/>
        <path d="M283.357 342.67L278.803 417.419L247.278 418.371C232.142 418.826 217.237 422.483 203.761 429.398C186.799 438.106 172.85 451.317 164.405 468.602L155.678 486.465C153.52 490.883 148.214 492.745 143.773 490.642L143.775 490.64C139.187 488.468 137.311 482.923 139.635 478.411L145.464 467.089C164.577 429.952 204.455 408.19 245.977 412.495C255.784 413.512 266.666 415.041 278.69 417.24" stroke="#EDD3F2" stroke-width="3.5798" stroke-miterlimit="10"/>
        <path d="M206.523 360.673L203.092 359.222C194.509 355.589 189.964 346.126 192.519 337.157C196.046 324.775 202.331 305.949 212.84 283.469" stroke="#EDD3F2" stroke-width="3.5798" stroke-miterlimit="10"/>
        <path d="M210.138 347.6L191.896 340.451" stroke="#EDD3F2" stroke-width="3.5798" stroke-miterlimit="10"/>
        <path d="M215.716 329.7L197.019 322.739" stroke="#EDD3F2" stroke-width="3.5798" stroke-miterlimit="10"/>
        <path d="M229.957 310.204L236.932 292.181" stroke="#EDD3F2" stroke-width="3.5798" stroke-miterlimit="10"/>
        <path d="M276.398 318.243C276.398 318.243 263.756 300.947 246.741 316.846C229.725 332.744 228.149 362.32 218.991 401.525" stroke="#EDD3F2" stroke-width="3.5798" stroke-miterlimit="10"/>
        <path d="M269.569 317.703C258.235 314.183 244.817 324.968 239.6 341.792C234.383 358.615 239.341 375.107 250.676 378.627C262.01 382.147 275.427 371.362 280.645 354.539C285.862 337.715 280.903 321.223 269.569 317.703Z" stroke="#EDD3F2" stroke-width="3.5798" stroke-miterlimit="10"/>
        <path d="M265.292 331.753C259.18 329.854 251.943 335.67 249.128 344.743C246.313 353.816 248.986 362.711 255.098 364.61C261.21 366.509 268.447 360.693 271.262 351.62C274.077 342.547 271.404 333.652 265.292 331.753Z" stroke="#EDD3F2" stroke-width="3.5798" stroke-miterlimit="10"/>
        <path d="M211.275 286.856L210.086 286.845C193.324 286.701 178.523 297.76 173.9 313.882L156.717 374.472" stroke="#EDD3F2" stroke-width="3.5798" stroke-miterlimit="10"/>
        <path d="M153.739 489.299L150.86 487.982C147.074 486.251 145.467 481.732 147.309 477.996L149.678 473.198C166.885 438.326 202.103 415.884 240.961 415.302C252.56 415.128 265.172 415.927 278.449 418.26" stroke="#EDD3F2" stroke-width="3.5798" stroke-miterlimit="10"/>
        <rect width="301.507" height="330.975" fill="black" fill-opacity="0" transform="translate(2 404.03)"/>
        <path d="M236.753 407.994L217.335 409.003C192.342 410.305 168.638 420.968 151.49 439.212C145.931 445.129 141.167 451.683 137.607 458.655L129.017 475.467C126.895 479.624 122.334 481.496 118.785 479.67C115.121 477.782 113.966 472.694 116.234 468.444L121.925 457.785C140.637 422.729 174.794 402.863 210.086 404.083C217.863 404.353 224.984 403.669 235.743 407.892" stroke="#EDD3F2" stroke-width="3.5798" stroke-miterlimit="10" stroke-linecap="round"/>
        <path d="M2.86151 629.393L2.17782 637.837C0.755102 655.437 7.93296 672.634 21.4372 683.995L79.6436 719.469C104.887 734.859 135.38 739.018 163.839 731.04C175.351 727.813 187.422 723.685 200.873 717.697C229.434 704.991 250.646 679.137 255.725 648.273C265.531 638.654 263.049 625.972 263.049 625.972C272.512 617.108 269.154 604.611 269.154 604.611C278.801 595.972 273.417 587.101 273.417 587.101C285.433 577.829 280.482 563.592 280.482 563.592C290.465 550.682 285.713 539.299 285.713 539.299C295.65 529.267 291.811 516.187 291.811 516.187C301.814 504.526 296.191 492.904 296.191 492.904C297.598 490.002 298.831 487.11 299.913 484.261C309.037 460.183 300.32 433.053 279.103 418.48C278.994 418.403 278.89 418.33 278.787 418.26L236.755 407.994C225.857 406.2 215.4 405.812 205.714 406.298C173.273 407.922 142.259 429.718 125.347 462.537L123.02 467.053C121.206 470.568 122.214 474.716 125.244 476.212L127.548 477.353" stroke="#EDD3F2" stroke-width="3.5798" stroke-miterlimit="10" stroke-linecap="round"/>
        <rect width="141.714" height="76.5096" fill="black" fill-opacity="0" transform="translate(95.0385 392.747)"/>
        <path d="M213.468 399.014L197.194 399.712C169.023 400.92 142.557 414.076 125.072 436.217C122.109 439.968 119.444 443.918 117.152 448.016L107.946 464.491C105.67 468.568 101.27 470.372 98.0765 468.541C94.7777 466.651 94.0476 461.629 96.4682 457.462L102.534 447.015C122.311 410.582 153.948 393.365 186.073 392.754C197.495 392.536 204.373 397.106 213.404 398.853" stroke="#EDD3F2" stroke-width="3.5798" stroke-miterlimit="10" stroke-linecap="round"/>
        <path d="M236.753 407.994L213.466 399.014C203.39 397.15 193.629 396.673 184.53 397.066C154.053 398.376 123.51 419.562 105.406 451.728L102.914 456.156C100.975 459.602 101.63 463.693 104.362 465.197L106.44 466.34" stroke="#EDD3F2" stroke-width="3.5798" stroke-miterlimit="10" stroke-linecap="round"/>
        <rect width="114.579" height="73.6411" fill="black" fill-opacity="0" transform="translate(76.6755 383.284)"/>
        <path d="M191.255 389.785L184.473 389.233C162.243 387.422 140.074 394.08 122.752 408.14C113.1 415.973 104.487 425.532 98.4049 435.915L88.8726 452.205C86.5162 456.229 82.2463 458.025 79.2955 456.229C76.2466 454.375 75.7896 449.421 78.2888 445.306L84.5509 434.979C105.145 401.018 138.634 380.589 168.9 383.572C175.981 384.272 182.695 387.927 191.199 389.624" stroke="#EDD3F2" stroke-width="3.5798" stroke-miterlimit="10" stroke-linecap="round"/>
        <path d="M87.3535 454.032L85.4328 452.91C82.9051 451.435 82.4767 447.401 84.4813 443.994L87.0626 439.62C105.801 407.826 135.849 386.821 164.898 385.432C173.568 385.015 180.078 387.268 189.571 389.074" stroke="#EDD3F2" stroke-width="3.5798" stroke-miterlimit="10" stroke-linecap="round"/>
        <rect width="108.632" height="68.6139" fill="black" fill-opacity="0" transform="translate(60.0606 376.224)"/>
        <path d="M168.693 379.833L155.662 380.321C134.458 381.116 114.146 389.283 98.4799 403.601C91.5144 409.971 85.247 417.333 80.363 425.263L71.0127 440.438C68.6992 444.189 64.7648 445.861 62.1854 444.189C59.5202 442.462 59.3364 437.849 61.7802 434.01L67.9066 424.391C88.0478 392.751 119.199 373.715 146.37 376.491C152.727 377.139 159.093 377.273 166.686 378.853" stroke="#EDD3F2" stroke-width="3.5798" stroke-miterlimit="10" stroke-linecap="round"/>
        <path d="M69.5561 442.142L67.8745 441.097C65.6628 439.725 65.4593 435.966 67.4265 432.792L69.9559 428.714C88.3263 399.092 116.402 379.522 142.673 378.222C150.515 377.834 159.087 377.677 167.57 379.36" stroke="#EDD3F2" stroke-width="3.5798" stroke-miterlimit="10" stroke-linecap="round"/>
        <rect width="101.664" height="62.991" fill="black" fill-opacity="0" transform="translate(47.9265 369.072)"/>
        <path d="M149.591 372.709L143.86 372.534C113.003 371.598 83.6565 386.525 66.7231 412.356C66.4821 412.724 66.2447 413.092 66.0108 413.462C65.7663 413.846 65.5235 414.235 65.2843 414.626L56.6034 428.714C56.025 429.655 55.3342 430.452 54.5916 431.09C52.0193 433.285 48.0689 431.536 47.9421 428.155C47.8618 425.961 48.0635 423.344 49.1846 421.582L53.5652 411.825C72.2676 382.45 101.341 366.768 126.566 369.347C132.47 369.947 139.057 370.646 146.108 372.111" stroke="#EDD3F2" stroke-width="3.5798" stroke-miterlimit="10" stroke-linecap="round"/>
        <path d="M55.252 430.293L53.6882 429.323C51.6372 428.049 51.4479 424.559 53.2759 421.613L55.6233 417.829C72.678 390.326 98.7439 372.157 123.134 370.95C130.415 370.589 138.155 370.966 146.029 372.527" stroke="#EDD3F2" stroke-width="3.5798" stroke-miterlimit="10" stroke-linecap="round"/>
        <rect width="194.506" height="163.141" fill="black" fill-opacity="0" transform="translate(41.3997 369.412)"/>
        <path d="M213.183 398.758L156.738 374.328L142.981 371.271C107.063 363.291 68.428 381.537 52.073 415.555C51.5893 416.561 50.7449 417.413 50.3022 418.439C45.802 428.88 42.3032 439.466 42.8209 448.194C42.8209 448.194 119.451 532.727 230.57 516.677C233.795 516.184 236.507 519.095 235.789 522.28L234.809 526.639C234.375 528.57 232.762 530.014 230.795 530.232L220.63 531.353C181.86 535.635 142.686 528.393 108.016 510.506C86.2664 499.286 64.6668 484.659 45.9216 469.136C40.4753 464.629 39.8166 456.545 44.6667 451.403C44.8202 451.238 44.9808 451.076 45.1451 450.917" stroke="#EDD3F2" stroke-width="3.5798" stroke-miterlimit="10" stroke-linecap="round"/>
        <path d="M48.0154 453.432L47.1943 457.542C46.4088 461.485 47.8869 465.538 51.0251 468.046C67.2766 481.046 109.226 512.598 153.796 522.45C195.817 531.736 219.961 527.572 226.651 525.989C227.833 525.71 228.774 524.815 229.12 523.651L231.128 516.912" stroke="#EDD3F2" stroke-width="3.5798" stroke-miterlimit="10" stroke-linecap="round"/>
        <rect width="194.463" height="109.107" fill="black" fill-opacity="0" transform="translate(35.2062 448.194)"/>
        <path d="M224.332 541.423C227.56 540.934 230.268 543.842 229.554 547.031L228.572 551.386C228.137 553.32 226.525 554.764 224.557 554.98L214.391 556.102C175.621 560.386 136.449 553.14 101.779 535.253C80.0311 524.036 58.4368 509.413 39.6934 493.891C34.2417 489.379 33.6366 481.128 38.5438 476.028C38.6616 475.908 38.783 475.785 38.9044 475.663" stroke="#EDD3F2" stroke-width="3.5798" stroke-miterlimit="10" stroke-linecap="round"/>
        <path d="M42.8208 448.194C42.8208 448.194 32.4065 461.956 36.5837 472.941C36.5837 472.941 113.214 557.474 224.334 541.421" stroke="#EDD3F2" stroke-width="3.5798" stroke-miterlimit="10" stroke-linecap="round"/>
        <path d="M41.7784 478.178L40.959 482.289C40.1718 486.231 41.6499 490.283 44.7898 492.795C61.0431 505.792 102.991 537.347 147.561 547.195C189.582 556.481 213.727 552.318 220.414 550.736C221.596 550.455 222.537 549.56 222.885 548.395L224.891 541.657" stroke="#EDD3F2" stroke-width="3.5798" stroke-miterlimit="10" stroke-linecap="round"/>
        <rect width="194.463" height="108.009" fill="black" fill-opacity="0" transform="translate(29.0557 472.943)"/>
        <path d="M218.181 565.073C221.41 564.582 224.118 567.492 223.402 570.679L222.421 575.037C221.987 576.968 220.375 578.412 218.408 578.63L208.242 579.753C169.471 584.034 130.299 576.788 95.6292 558.905C73.8814 547.684 52.2872 533.063 33.5419 517.543C28.0903 513.029 27.4869 504.781 32.3941 499.679C32.5102 499.556 32.6333 499.433 32.7547 499.313" stroke="#EDD3F2" stroke-width="3.5798" stroke-miterlimit="10" stroke-linecap="round"/>
        <path d="M218.181 565.073C107.063 581.124 30.4324 496.594 30.4324 496.594C30.4324 496.594 26.0464 484.543 36.582 472.943" stroke="#EDD3F2" stroke-width="3.5798" stroke-miterlimit="10" stroke-linecap="round"/>
        <path d="M35.6286 501.83L34.8093 505.939C34.0221 509.883 35.5001 513.934 38.6401 516.444C54.8933 529.442 96.8412 560.998 141.411 570.847C183.431 580.132 207.576 575.968 214.264 574.387C215.446 574.105 216.385 573.214 216.735 572.045L218.741 565.309" stroke="#EDD3F2" stroke-width="3.5798" stroke-miterlimit="10" stroke-linecap="round"/>
        <rect width="194.461" height="109.059" fill="black" fill-opacity="0" transform="translate(23.2716 496.592)"/>
        <path d="M212.397 589.775C215.625 589.282 218.333 592.192 217.617 595.381L216.637 599.738C216.201 601.669 214.589 603.112 212.622 603.328L202.456 604.454C163.686 608.734 124.514 601.488 89.8437 583.603C68.0942 572.386 46.5017 557.761 27.7565 542.243C22.3066 537.729 21.7032 529.481 26.6087 524.379C26.7265 524.256 26.8461 524.133 26.9693 524.013" stroke="#EDD3F2" stroke-width="3.5798" stroke-miterlimit="10" stroke-linecap="round"/>
        <path d="M30.4323 496.592C30.4323 496.592 27.2388 499.861 25.4751 506.657C23.4258 514.553 25.9571 522.943 31.9247 528.501C53.5135 548.594 121.384 602.919 212.397 589.775" stroke="#EDD3F2" stroke-width="3.5798" stroke-miterlimit="10" stroke-linecap="round"/>
        <path d="M29.8398 526.53L29.0222 530.641C28.2332 534.585 29.7148 538.636 32.853 541.146C49.1063 554.144 91.0559 585.7 135.624 595.549C177.647 604.834 201.791 600.672 208.479 599.089C209.661 598.81 210.6 597.915 210.95 596.747L212.954 590.011" stroke="#EDD3F2" stroke-width="3.5798" stroke-miterlimit="10" stroke-linecap="round"/>
        <rect width="194.915" height="110.649" fill="black" fill-opacity="0" transform="translate(16.8682 519.849)"/>
        <path d="M206.439 613.135C209.664 612.639 212.381 615.543 211.669 618.732L210.696 623.091C210.264 625.025 208.652 626.471 206.687 626.69L196.287 628.391C148.784 633.714 124.946 629.633 83.403 608.287C61.6392 597.104 40.1395 582.235 21.3693 566.743C15.9105 562.24 15.2947 553.99 20.1929 548.881C20.309 548.758 20.4321 548.637 20.5535 548.517" stroke="#EDD3F2" stroke-width="3.5798" stroke-miterlimit="10" stroke-linecap="round"/>
        <path d="M26.1588 519.849C26.1588 519.849 14.2147 531.555 20.9498 548.356C20.9498 548.356 64.6882 592.885 128.414 611.876C148.291 617.387 182.62 616.617 206.439 613.137" stroke="#EDD3F2" stroke-width="3.5798" stroke-miterlimit="10" stroke-linecap="round"/>
        <path d="M23.4295 551.03L22.6172 555.143C21.8354 559.09 23.3259 563.14 26.473 565.648C39.9094 576.356 73.678 599.916 110.215 615.242C123.83 620.951 138.248 624.438 152.993 625.122C180.621 626.41 195.744 624.08 202.549 622.455C203.727 622.174 204.663 621.276 205.005 620.111L207.001 613.375" stroke="#EDD3F2" stroke-width="3.5798" stroke-miterlimit="10" stroke-linecap="round"/>
        <rect width="195.26" height="84.0406" fill="black" fill-opacity="0" transform="translate(10.0996 571.893)"/>
        <path d="M199.821 636.796C203.051 636.319 205.978 638.679 205.246 641.864L204.245 646.217C203.802 648.147 201.953 650.147 199.986 650.354L186.649 652.616C136.774 659.217 124.064 657.741 76.6305 631.664C55.188 619.872 33.0386 606.495 14.3666 590.89C8.93452 586.352 8.69175 577.336 13.6222 572.254C13.74 572.133 13.8631 572.011 13.9845 571.893" stroke="#EDD3F2" stroke-width="3.5798" stroke-miterlimit="10" stroke-linecap="round"/>
        <path d="M13.9899 571.897C13.9899 571.897 57.5871 614.702 127.873 638.541C147.716 644.172 175.982 640.133 199.821 636.796" stroke="#EDD3F2" stroke-width="3.5798" stroke-miterlimit="10" stroke-linecap="round"/>
        <path d="M16.8496 574.421L16.0106 578.526C15.2037 582.47 16.6711 586.531 19.8021 589.057C33.1725 599.848 67.1213 622.846 103.566 638.395C117.143 644.186 126.44 648.974 141.179 649.747C167.435 650.106 189.289 647.109 196.107 645.528C197.287 645.256 198.226 644.363 198.577 643.2L200.384 637.039" stroke="#EDD3F2" stroke-width="3.5798" stroke-miterlimit="10" stroke-linecap="round"/>
        <rect width="195.414" height="82.3771" fill="black" fill-opacity="0" transform="translate(5.17094 597.278)"/>
        <path d="M194.982 659.336C198.204 658.808 201.171 661.119 200.485 664.315L199.554 668.684C199.139 670.619 197.32 672.65 195.355 672.888L182.056 675.349C130.444 682.984 120.827 682.577 71.5749 656.471C49.9539 645.011 28.0723 630.817 9.1628 615.499C3.66294 611.045 4.09136 603.276 8.94502 598.121C9.05927 598.001 8.05783 597.401 8.17743 597.278" stroke="#EDD3F2" stroke-width="3.5798" stroke-miterlimit="10" stroke-linecap="round"/>
        <path d="M8.74335 597.522C10.8283 599.278 57.4121 641.567 125.353 663.534C145.281 668.861 171.199 663.032 194.982 659.335" stroke="#EDD3F2" stroke-width="3.5798" stroke-miterlimit="10" stroke-linecap="round"/>
        <path d="M11.08 599.764L10.3018 603.885C9.55737 607.841 10.989 612.006 14.2557 614.354C33.8739 628.459 49.7683 641.219 98.5031 664.038C111.525 670.137 119.744 673.651 134.86 674.211C161.117 674.169 184.611 669.806 191.401 668.118C192.576 667.827 193.5 666.918 193.834 665.755L195.546 659.563" stroke="#EDD3F2" stroke-width="3.5798" stroke-miterlimit="10" stroke-linecap="round"/>
        <rect width="190.768" height="136.153" fill="black" fill-opacity="0" transform="translate(2.74611 568.372)"/>
        <path d="M4.95554 621.983C1.09796 630.815 2.52425 637.689 7.42968 641.448C26.7426 656.251 50.645 673.508 72.3249 684.853C121.717 710.695 123.627 706.311 175.196 698.395L188.584 695.575C190.548 695.325 192.462 693.002 192.861 691.062L193.417 687.532C194.082 684.333 191.226 681.755 188.006 682.3" stroke="#EDD3F2" stroke-width="3.5798" stroke-miterlimit="10" stroke-linecap="round"/>
        <path d="M13.0597 568.372C13.0597 568.372 3.86472 582.912 8.33994 597.206C8.33994 597.206 -1.3067 609.086 5.48022 622.303C5.48022 622.303 57.4656 667.664 119.756 687.131C139.712 692.352 164.241 686.128 188.004 682.304" stroke="#EDD3F2" stroke-width="3.5798" stroke-miterlimit="10" stroke-linecap="round"/>
        <path d="M7.93134 624.9L7.00132 629.815C6.4533 632.569 7.49935 635.395 9.71465 637.125C24.8433 648.947 53.0727 669.19 89.1887 686.6C102.489 693.013 113.689 698.354 128.441 698.826C155.996 697 177.619 693.129 184.402 691.405C185.573 691.105 186.598 689.907 186.924 688.738L188.336 683.092" stroke="#EDD3F2" stroke-width="3.5798" stroke-miterlimit="10" stroke-linecap="round"/>
        <path d="M20.1912 548.881C20.1912 548.881 10.3107 555.952 13.6238 572.252" stroke="#EDD3F2" stroke-width="3.5798" stroke-miterlimit="10" stroke-linecap="round"/>
        <rect width="38.0274" height="28.3794" fill="black" fill-opacity="0" transform="translate(259.615 493.02)"/>
        <path fill-rule="evenodd" clip-rule="evenodd" d="M297.523 496.319C297.523 496.319 299.319 506.326 288.971 511.423C282.134 514.788 270.848 518.849 263.976 521.214C261.469 522.079 259.029 519.774 259.74 517.221L260.907 513.029C261.609 510.517 263.519 508.525 265.998 507.725C273.415 505.324 289.306 499.649 296.47 493.02L297.523 496.319Z" stroke="#EDD3F2" stroke-width="3.5798" stroke-miterlimit="10"/>
        <path d="M291.25 497.164C291.25 497.164 298.651 506.585 260.047 515.171" stroke="#EDD3F2" stroke-width="3.5798" stroke-miterlimit="10"/>
        <rect width="38.0279" height="28.3788" fill="black" fill-opacity="0" transform="translate(254.668 515.841)"/>
        <path fill-rule="evenodd" clip-rule="evenodd" d="M292.576 519.136C292.576 519.136 294.372 529.144 284.024 534.244C277.187 537.609 265.902 541.668 259.026 544.035C256.525 544.898 254.081 542.593 254.793 540.041L255.961 535.85C256.662 533.338 258.572 531.346 261.052 530.542C268.469 528.143 284.36 522.468 291.523 515.841L292.576 519.136Z" stroke="#EDD3F2" stroke-width="3.5798" stroke-miterlimit="10"/>
        <path d="M286.304 519.985C286.304 519.985 293.701 529.404 255.1 537.992" stroke="#EDD3F2" stroke-width="3.5798" stroke-miterlimit="10"/>
        <rect width="38.0281" height="28.3794" fill="black" fill-opacity="0" transform="translate(248.495 539.233)"/>
        <path fill-rule="evenodd" clip-rule="evenodd" d="M286.404 542.531C286.404 542.531 288.201 552.538 277.849 557.635C271.013 561.002 259.729 565.06 252.855 567.427C250.352 568.292 247.908 565.986 248.62 563.435L249.79 559.24C250.488 556.729 252.399 554.737 254.881 553.935C262.296 551.536 278.189 545.861 285.349 539.233L286.404 542.531Z" stroke="#EDD3F2" stroke-width="3.5798" stroke-miterlimit="10"/>
        <path d="M280.129 543.374C280.129 543.374 287.528 552.795 248.927 561.381" stroke="#EDD3F2" stroke-width="3.5798" stroke-miterlimit="10"/>
        <rect width="37.9774" height="27.9611" fill="black" fill-opacity="0" transform="translate(243.32 563.274)"/>
        <path fill-rule="evenodd" clip-rule="evenodd" d="M281.23 566.538C281.23 566.538 282.651 576.299 272.398 581.349C265.625 584.686 254.447 588.705 247.638 591.052C245.157 591.908 242.74 589.623 243.444 587.094L244.6 582.942C245.295 580.454 247.187 578.48 249.643 577.688C256.989 575.309 272.731 569.687 280.184 563.274L281.23 566.538Z" stroke="#EDD3F2" stroke-width="3.5798" stroke-miterlimit="10"/>
        <path d="M274.658 567.222C274.658 567.222 281.987 576.558 243.749 585.063" stroke="#EDD3F2" stroke-width="3.5798" stroke-miterlimit="10"/>
        <rect width="35.7756" height="26.5621" fill="black" fill-opacity="0" transform="translate(227.161 630.336)"/>
        <path fill-rule="evenodd" clip-rule="evenodd" d="M262.021 633.834C262.021 633.834 263.674 643.036 254.156 647.725C247.871 650.819 237.49 654.552 231.173 656.728C228.868 657.523 226.623 655.405 227.276 653.055L228.353 649.2C228.995 646.892 230.755 645.061 233.035 644.324C239.852 642.118 256.35 636.43 262.937 630.336L262.021 633.834Z" stroke="#EDD3F2" stroke-width="3.5798" stroke-miterlimit="10"/>
        <path d="M256.25 634.615C256.25 634.615 263.053 643.277 227.56 651.173" stroke="#EDD3F2" stroke-width="3.5798" stroke-miterlimit="10"/>
        <rect width="34.8598" height="26.1505" fill="black" fill-opacity="0" transform="translate(219.114 652.679)"/>
        <path fill-rule="evenodd" clip-rule="evenodd" d="M253.974 655.765L253.872 652.679C247.283 658.774 231.807 664.047 224.986 666.255C222.706 666.993 220.948 668.824 220.305 671.132L219.229 674.985C218.576 677.334 220.823 679.453 223.126 678.66C229.449 676.482 239.822 672.748 246.107 669.654C248.421 668.986 250.248 667.212 250.995 664.924L253.974 655.765Z" stroke="#EDD3F2" stroke-width="3.5798" stroke-miterlimit="10"/>
        <path d="M248.203 656.546C248.203 656.546 255.006 665.208 219.513 673.104" stroke="#EDD3F2" stroke-width="3.5798" stroke-miterlimit="10"/>
        <rect width="41.4436" height="48.9404" fill="black" fill-opacity="0" transform="translate(233.029 587.038)"/>
        <path fill-rule="evenodd" clip-rule="evenodd" d="M274.354 590.302C274.354 590.302 276.134 600.215 265.88 605.266C259.108 608.602 247.928 612.621 241.119 614.968C238.638 615.822 236.221 613.539 236.924 611.01L238.081 606.858C238.774 604.37 240.668 602.399 243.124 601.604C250.468 599.227 266.212 593.603 273.308 587.038L274.354 590.302Z" stroke="#EDD3F2" stroke-width="3.5798" stroke-miterlimit="10"/>
        <path d="M268.137 591.14C268.137 591.14 275.468 600.474 237.23 608.978" stroke="#EDD3F2" stroke-width="3.5798" stroke-miterlimit="10"/>
        <path d="M262.107 626.094C255.334 629.431 244.156 633.45 237.348 635.796C234.864 636.651 232.449 634.368 233.153 631.839L234.308 627.687C235.002 625.199 236.894 623.225 239.35 622.433C245.02 620.597 262.808 613.335 268.976 607.632" stroke="#EDD3F2" stroke-width="3.5798" stroke-miterlimit="10"/>
        <path d="M264.202 611.569C264.202 611.569 268.197 623.507 233.659 630.887" stroke="#EDD3F2" stroke-width="3.5798" stroke-miterlimit="10"/>
        <path fill-rule="evenodd" clip-rule="evenodd" d="M253.081 418.038L277.103 422.96L284.328 421.097L248.985 413.308C245.348 412.508 241.794 411.373 238.365 409.921L166.435 379.474L146.786 375.953L240.496 414.214C244.563 415.877 248.778 417.156 253.081 418.038Z" fill="white" stroke="#EDD3F2" stroke-width="3.5798" stroke-miterlimit="10"/>
        <path d="M130.005 738.814L135.29 716.184" stroke="#EDD3F2" stroke-width="3.5798" stroke-miterlimit="10" stroke-linecap="round"/>
        <path d="M140.665 693.427L142.611 684.069" stroke="#EDD3F2" stroke-width="3.5798" stroke-miterlimit="10" stroke-linecap="round"/>
        <path d="M145.387 668.965L146.927 660.974" stroke="#EDD3F2" stroke-width="3.5798" stroke-miterlimit="10" stroke-linecap="round"/>
        <path d="M149.539 644.59L151.524 633.425" stroke="#EDD3F2" stroke-width="3.5798" stroke-miterlimit="10" stroke-linecap="round"/>
        <path d="M153.852 619.109L156.208 607.188" stroke="#EDD3F2" stroke-width="3.5798" stroke-miterlimit="10" stroke-linecap="round"/>
        <path d="M159.444 592.639L161.476 582.312" stroke="#EDD3F2" stroke-width="3.5798" stroke-miterlimit="10" stroke-linecap="round"/>
        <path d="M164.684 568.664L166.413 559.055" stroke="#EDD3F2" stroke-width="3.5798" stroke-miterlimit="10" stroke-linecap="round"/>
        <path d="M169.519 544.23L171.399 534.262" stroke="#EDD3F2" stroke-width="3.5798" stroke-miterlimit="10" stroke-linecap="round"/>
        <path d="M282.919 172.312L270.698 168.118L260.259 196.146" stroke="#EDD3F2" stroke-width="3.5798" stroke-miterlimit="10"/>
        <path d="M270.698 168.118L267.782 163.446" stroke="#EDD3F2" stroke-width="3.5798" stroke-miterlimit="10"/>
        <rect width="380.896" height="989.687" fill="black" fill-opacity="0" transform="translate(260.104 53.3127)"/>
        <rect width="380.896" height="989.687" fill="black" fill-opacity="0" transform="translate(260.104 53.3127)"/>
        <rect width="380.896" height="989.687" fill="black" fill-opacity="0" transform="translate(260.104 53.3127)"/>
        <path d="M473.487 115.868V53.3127H391.328V116.281" stroke="#E8E2E8" stroke-width="3.5798" stroke-miterlimit="10"/>
        <path d="M384.31 128.683C384.31 119.637 391.638 112.302 400.682 112.302H464.963C474.001 112.302 481.334 119.637 481.334 128.683" stroke="#E8E2E8" stroke-width="3.5798" stroke-miterlimit="10"/>
        <path d="M353.002 208.977L350.481 146.542C350.237 140.509 354.412 135.191 360.331 134.003L439.636 118.085L515.426 134.555C524.272 136.477 530.369 144.604 529.746 153.639L514.301 378.013C513.439 390.568 505.029 401.334 493.062 405.203L438.527 422.844C434.466 424.157 430.252 424.939 425.992 425.17L399.034 426.627L376.012 427.872C368.239 428.292 361.624 422.27 361.31 414.485" stroke="#E8E2E8" stroke-width="3.5798" stroke-miterlimit="10"/>
        <path fill-rule="evenodd" clip-rule="evenodd" d="M349.703 409.88C349.626 412.05 351.426 413.819 353.593 413.701L391.103 411.652L440.236 408.994L474.176 397.374L481.882 205.814L440.129 194.935L351.244 204.824C348.993 205.074 347.29 206.978 347.29 209.243C347.29 211.869 349.555 213.926 352.167 213.67L440.127 205.058L471.546 212.441L464.54 392.556L440.127 401.134L353.17 406.325C351.274 406.438 349.771 407.977 349.703 409.88Z" fill="#E8E2E7" stroke="#E8E2E8" stroke-width="3.5798" stroke-miterlimit="10"/>
        <path d="M471.162 222.35L439.716 215.521L356.235 222.959L350.471 213.506" stroke="#E8E2E8" stroke-width="3.5798" stroke-miterlimit="10"/>
        <rect width="10.9355" height="182.841" fill="black" fill-opacity="0" transform="translate(352.832 223.288)"/>
        <path d="M359.939 406.129L363.768 397.261L359.23 388.738L363.057 379.874L358.518 371.35L362.347 362.48L357.807 353.956L361.636 345.088L357.097 336.56L360.926 327.693L356.386 319.173L360.215 310.306L355.678 301.785L359.505 292.917L354.966 284.387L358.795 275.516L354.255 266.986L358.082 258.119L353.545 249.591L357.372 240.712L352.832 232.172L356.66 223.288" stroke="#E8E2E8" stroke-width="3.5798" stroke-miterlimit="10"/>
        <rect width="10.9354" height="184.08" fill="black" fill-opacity="0" transform="translate(428.659 216.816)"/>
        <path d="M435.768 400.896L439.595 391.97L435.055 383.386L438.886 374.463L434.347 365.88L438.174 356.953L433.635 348.368L437.465 339.443L432.926 330.854L436.755 321.928L432.215 313.35L436.043 304.423L431.505 295.842L435.334 286.915L430.794 278.328L434.622 269.398L430.082 260.809L433.911 251.882L429.372 243.294L433.199 234.36L428.659 225.757L432.488 216.816" stroke="#E8E2E8" stroke-width="3.5798" stroke-miterlimit="10"/>
        <path d="M440.129 392.554L464.827 385.192" stroke="#E8E2E8" stroke-width="3.5798" stroke-miterlimit="10"/>
        <path d="M435.298 383.745L464.827 376.848" stroke="#E8E2E8" stroke-width="3.5798" stroke-miterlimit="10"/>
        <path d="M434.129 365.978L465.763 361.175" stroke="#E8E2E8" stroke-width="3.5798" stroke-miterlimit="10"/>
        <path d="M438.945 374.242L465.397 369.286" stroke="#E8E2E8" stroke-width="3.5798" stroke-miterlimit="10"/>
        <path d="M437.86 357.166L466.027 354.365" stroke="#E8E2E8" stroke-width="3.5798" stroke-miterlimit="10"/>
        <path d="M433.027 348.214L466.027 345.733" stroke="#E8E2E8" stroke-width="3.5798" stroke-miterlimit="10"/>
        <path d="M437.86 339.538L466.66 338.075" stroke="#E8E2E8" stroke-width="3.5798" stroke-miterlimit="10"/>
        <path d="M433.027 330.862L466.987 329.681" stroke="#E8E2E8" stroke-width="3.5798" stroke-miterlimit="10"/>
        <path d="M436.744 321.978H467.285" stroke="#E8E2E8" stroke-width="3.5798" stroke-miterlimit="10"/>
        <path d="M431.994 313.302L466.776 313.82" stroke="#E8E2E8" stroke-width="3.5798" stroke-miterlimit="10"/>
        <path d="M436.33 304.32L467.937 305.25" stroke="#E8E2E8" stroke-width="3.5798" stroke-miterlimit="10"/>
        <path d="M431.101 295.743L468.238 297.524" stroke="#E8E2E8" stroke-width="3.5798" stroke-miterlimit="10"/>
        <path d="M435.919 287.065L468.579 289.128" stroke="#E8E2E8" stroke-width="3.5798" stroke-miterlimit="10"/>
        <path d="M430.396 278.115L468.836 281.283" stroke="#E8E2E8" stroke-width="3.5798" stroke-miterlimit="10"/>
        <path d="M434.955 268.887L469.229 272.051" stroke="#E8E2E8" stroke-width="3.5798" stroke-miterlimit="10"/>
        <path d="M429.723 260.625L470.054 264.989" stroke="#E8E2E8" stroke-width="3.5798" stroke-miterlimit="10"/>
        <path d="M434.129 251.811L469.908 256.08" stroke="#E8E2E8" stroke-width="3.5798" stroke-miterlimit="10"/>
        <path d="M429.723 243.135L469.908 248.258" stroke="#E8E2E8" stroke-width="3.5798" stroke-miterlimit="10"/>
        <path d="M433.165 234.458L470.477 239.973" stroke="#E8E2E8" stroke-width="3.5798" stroke-miterlimit="10"/>
        <path d="M428.486 225.644L470.477 232.116" stroke="#E8E2E8" stroke-width="3.5798" stroke-miterlimit="10"/>
        <path d="M372.877 292.024L370.273 234.665L416.1 230.948L421.055 390.114L376.879 392.554L374.054 327.589" stroke="#E8E2E8" stroke-width="3.5798" stroke-miterlimit="10"/>
        <path d="M384.075 331.051L408.27 329.759L405.651 245.555L382.233 247.522L383.763 333.52" stroke="#E8E2E8" stroke-width="3.5798" stroke-miterlimit="10"/>
        <rect width="32.3548" height="26.8545" fill="black" fill-opacity="0" transform="translate(380.808 352.345)"/>
        <path d="M399.952 378.786C407.248 378.786 413.163 372.867 413.163 365.565C413.163 358.264 407.248 352.345 399.952 352.345C392.655 352.345 386.74 358.264 386.74 365.565C386.74 372.867 392.655 378.786 399.952 378.786Z" fill="#EDD3F2" stroke="#E8E2E8" stroke-width="3.5798" stroke-miterlimit="10"/>
        <path d="M394.02 379.199C401.316 379.199 407.231 373.28 407.231 365.978C407.231 358.676 401.316 352.757 394.02 352.757C386.723 352.757 380.808 358.676 380.808 365.978C380.808 373.28 386.723 379.199 394.02 379.199Z" fill="#EDD3F2" stroke="#E8E2E8" stroke-width="3.5798" stroke-miterlimit="10"/>
        <path fill-rule="evenodd" clip-rule="evenodd" d="M407.031 289.259L391.744 286.225L369.632 287.426L384.075 290.55L407.031 289.259Z" fill="white" stroke="#E8E2E8" stroke-width="3.5798" stroke-miterlimit="10" stroke-linejoin="round"/>
        <path d="M369.632 287.426L368.209 253.176L390.091 251.798L391.744 286.225" stroke="#E8E2E8" stroke-width="3.5798" stroke-miterlimit="10"/>
        <path d="M391.328 251.798L406.888 253.379L408.27 289.259" stroke="#E8E2E8" stroke-width="3.5798" stroke-miterlimit="10"/>
        <path d="M439.634 118.087L440.129 194.933V205.056" stroke="#E8E2E8" stroke-width="3.5798" stroke-miterlimit="10"/>
        <path d="M440.236 408.992L431.994 424.477" stroke="#E8E2E8" stroke-width="3.5798" stroke-miterlimit="10"/>
        <path d="M493.058 405.205L485.732 435.25" stroke="#E8E2E8" stroke-width="3.5798" stroke-miterlimit="10"/>
        <path d="M510.966 464.891C502.991 441.327 480.709 426.218 457.723 430.204C442.428 432.858 430.27 443.373 423.968 457.444C420.359 465.506 418.988 474.39 419.718 483.196C420.528 492.984 422.654 517.77 427.313 543.46L391.271 543.224L382.543 489.129C380.582 476.982 383.282 464.545 390.103 454.307L391.606 452.054" stroke="#E8E2E8" stroke-width="3.5798" stroke-miterlimit="10"/>
        <path d="M510.965 463.653L544.708 559.333L505.87 577.172C487.227 585.736 470.552 598.173 457.387 613.92C440.814 633.743 430.37 657.595 428.954 683.626L427.487 710.528C427.126 717.183 421.487 722.308 414.834 722.029V722.027C407.961 721.74 402.697 715.813 403.217 708.951L404.518 691.748C408.781 635.31 447.066 587.09 501.147 570.53C513.921 566.62 528.309 562.779 544.471 559.173" stroke="#E8E2E8" stroke-width="3.5798" stroke-miterlimit="10"/>
        <path d="M424.58 526.7H419.534C406.911 526.7 396.246 517.293 394.705 504.753C392.575 487.439 390.489 460.627 391.744 427.024" stroke="#E8E2E8" stroke-width="3.5798" stroke-miterlimit="10"/>
        <path d="M422.199 508.481L395.664 509.193" stroke="#E8E2E8" stroke-width="3.5798" stroke-miterlimit="10"/>
        <path d="M419.718 483.195L392.713 484.386" stroke="#E8E2E8" stroke-width="3.5798" stroke-miterlimit="10"/>
        <path d="M427.205 451.347L426.405 425.173" stroke="#E8E2E8" stroke-width="3.5798" stroke-miterlimit="10"/>
        <path d="M489.397 436.845C489.397 436.845 464.5 421.943 451.651 450.77C438.806 479.597 452.437 517.334 461.689 571.095" stroke="#E8E2E8" stroke-width="3.5798" stroke-miterlimit="10"/>
        <path d="M480.591 439.798C464.592 441.393 453.538 461.937 455.901 485.686C458.265 509.434 473.15 527.394 489.149 525.799C505.148 524.205 516.202 503.66 513.838 479.912C511.475 456.163 496.59 438.204 480.591 439.798Z" stroke="#E8E2E8" stroke-width="3.5798" stroke-miterlimit="10"/>
        <path d="M482.609 459.561C473.979 460.421 468.015 471.502 469.288 484.312C470.562 497.122 478.59 506.81 487.221 505.95C495.851 505.091 501.815 494.01 500.541 481.2C499.268 468.39 491.239 458.702 482.609 459.561Z" stroke="#E8E2E8" stroke-width="3.5798" stroke-miterlimit="10"/>
        <path d="M391.578 432.079L390.089 432.694C369.096 441.368 356.46 462.985 359.193 485.547L369.71 570.23" stroke="#E8E2E8" stroke-width="3.5798" stroke-miterlimit="10"/>
        <path d="M426.56 715.087L422.272 714.968C416.635 714.809 412.245 710.018 412.574 704.382L412.997 697.141C416.076 644.54 448.185 597.932 496.366 576.681C510.75 570.337 526.909 564.671 544.708 560.57" stroke="#E8E2E8" stroke-width="3.5798" stroke-miterlimit="10"/>
        <rect width="328.82" height="482.613" fill="black" fill-opacity="0" transform="translate(312.18 560.387)"/>
        <path d="M487.264 569.785L463.567 581.302C433.067 596.127 409.111 621.955 397.336 653.777C393.52 664.095 391.033 674.79 390.267 685.371L388.416 710.884C387.957 717.193 383.254 721.94 377.864 721.536C372.295 721.116 368.17 715.378 368.757 708.874L370.237 692.565C375.097 638.936 407.242 596.106 451.922 578.987C461.773 575.216 470.293 570.602 485.95 570.187" stroke="#E8E2E8" stroke-width="3.5798" stroke-miterlimit="10" stroke-linecap="round"/>
        <path d="M312.18 969.601L315.783 980.498C323.289 1003.21 341.317 1020.88 364.162 1027.92L455.505 1041.45C495.122 1047.31 535.363 1036.4 566.672 1011.41C579.335 1001.3 592.218 989.774 605.846 975.198C634.784 944.256 647.613 900.788 637.672 859.592C644.837 842.409 635.05 827.897 635.05 827.897C642.183 811.837 631.397 798.016 631.397 798.016C638.879 782.137 627.483 773.912 627.483 773.912C637.585 755.997 623.902 740.845 623.902 740.845C629.546 719.464 617.615 707.77 617.615 707.77C624.725 690.003 613.034 675.707 613.034 675.707C619.364 655.874 606.221 644.34 606.221 644.34C606.445 639.974 606.458 635.717 606.304 631.589C604.992 596.72 579.803 567.472 545.64 560.494C545.465 560.457 545.297 560.423 545.133 560.387L487.267 569.782C472.722 573.297 459.47 578.339 447.642 584.06C408.018 603.223 380.812 646.805 377.02 696.689L376.499 703.554C376.09 708.897 379.535 713.54 384.109 713.81L387.584 714.015" stroke="#E8E2E8" stroke-width="3.5798" stroke-miterlimit="10" stroke-linecap="round"/>
        <rect width="149.082" height="148.852" fill="black" fill-opacity="0" transform="translate(338.182 569.785)"/>
        <path d="M453.47 570.877L433.533 580.345C399.014 596.733 372.931 627.128 362.786 663.99C361.069 670.235 359.824 676.571 359.126 682.897L356.331 708.32C355.638 714.608 351.101 719.183 346.151 718.585C341.036 717.969 337.479 712.088 338.3 705.611L340.36 689.371C345.824 633.461 376.217 595.266 415.983 577.535C430.123 571.231 441.114 573.297 453.302 570.711" stroke="#E8E2E8" stroke-width="3.5798" stroke-miterlimit="10" stroke-linecap="round"/>
        <path d="M487.264 569.785L453.468 570.877C439.914 573.874 427.481 578.435 416.335 583.73C378.994 601.465 352.056 644.034 346.429 693.735L345.654 700.575C345.051 705.898 348.027 710.661 352.231 711.093L355.424 711.423" stroke="#E8E2E8" stroke-width="3.5798" stroke-miterlimit="10" stroke-linecap="round"/>
        <rect width="111.849" height="142.287" fill="black" fill-opacity="0" transform="translate(309.036 570.927)"/>
        <path d="M420.885 571.095L412.135 573.987C383.438 583.469 359.287 603.489 345.085 630.183C337.174 645.056 331.465 661.534 329.357 677.702L326.051 703.061C325.233 709.333 320.852 713.826 316.224 713.146C311.44 712.44 308.257 706.504 309.203 700.046L311.568 683.851C319.357 630.597 350.367 587.417 389.709 575.152C398.913 572.286 409.222 573.301 420.728 570.927" stroke="#E8E2E8" stroke-width="3.5798" stroke-miterlimit="10" stroke-linecap="round"/>
        <path d="M325.119 706.145L322.129 705.761C318.198 705.257 315.534 700.446 316.241 695.139L317.152 688.317C323.764 638.745 350.185 596.663 385.696 579.584C396.296 574.485 405.607 573.858 418.404 571.097" stroke="#E8E2E8" stroke-width="3.5798" stroke-miterlimit="10" stroke-linecap="round"/>
        <rect width="105.06" height="136.81" fill="black" fill-opacity="0" transform="translate(282.425 570.43)"/>
        <path d="M387.485 570.593L371.481 578.085C345.442 590.273 324.403 611.197 312.405 637.341C307.073 648.968 303.135 661.464 301.22 673.94L297.555 697.815C296.648 703.719 292.619 707.885 288.519 707.158C284.283 706.411 281.62 700.75 282.644 694.671L285.213 679.431C293.658 629.309 322.493 589.101 357.859 578.214C366.135 575.666 374.148 572.47 384.457 570.43" stroke="#E8E2E8" stroke-width="3.5798" stroke-miterlimit="10" stroke-linecap="round"/>
        <path d="M296.639 700.711L293.988 700.296C290.506 699.751 288.271 695.167 289.051 690.169L290.054 683.744C297.352 637.076 322.064 597.824 354.16 582.326C363.741 577.699 374.359 572.978 385.83 570.595" stroke="#E8E2E8" stroke-width="3.5798" stroke-miterlimit="10" stroke-linecap="round"/>
        <rect width="99.623" height="126.045" fill="black" fill-opacity="0" transform="translate(260.266 571.795)"/>
        <path d="M359.889 571.795L352.648 574.603C313.648 589.736 284.901 623.863 277.394 665.038C277.287 665.624 277.187 666.207 277.087 666.793C276.986 667.404 276.887 668.016 276.793 668.629L273.39 690.794C273.165 692.273 272.726 693.635 272.132 694.819C270.086 698.921 264.233 698.822 262.292 694.671C261.03 691.975 259.904 688.604 260.375 685.81L260.697 671.323C268.539 624.788 296.547 589.861 329.383 579.755C337.066 577.39 345.654 574.777 355.228 572.881" stroke="#E8E2E8" stroke-width="3.5798" stroke-miterlimit="10" stroke-linecap="round"/>
        <path d="M272.539 693.483L270.077 693.097C266.843 692.591 264.768 688.336 265.495 683.694L266.427 677.729C273.203 634.402 296.145 597.962 325.945 583.571C334.84 579.276 344.698 575.657 355.349 573.446" stroke="#E8E2E8" stroke-width="3.5798" stroke-miterlimit="10" stroke-linecap="round"/>
        <rect width="287.414" height="196.437" fill="black" fill-opacity="0" transform="translate(260.104 570.037)"/>
        <path d="M452.981 570.711L369.659 570.037L350.881 573.49C301.852 582.508 263.267 625.681 260.798 676.769C260.727 678.279 260.12 679.788 260.111 681.302C260 696.711 261.218 711.766 266.468 722.386C266.468 722.386 406.678 787.394 536.87 708.669C540.636 706.35 545.556 708.551 546.341 712.906L547.418 718.862C547.896 721.504 546.641 724.155 544.303 725.464L532.211 732.235C486.089 758.057 433.388 769.709 380.69 765.702C347.63 763.189 312.964 756.349 281.382 746.879C272.212 744.13 267.126 734.393 270.463 725.412C270.572 725.127 270.682 724.839 270.804 724.553" stroke="#E8E2E8" stroke-width="3.5798" stroke-miterlimit="10" stroke-linecap="round"/>
        <path d="M275.714 726.177L276.859 731.738C277.958 737.076 281.941 741.351 287.182 742.824C314.319 750.459 383.309 767.676 444.12 756.424C501.454 745.816 529.387 727.867 536.902 722.36C538.228 721.386 538.93 719.775 538.748 718.137L537.7 708.669" stroke="#E8E2E8" stroke-width="3.5798" stroke-miterlimit="10" stroke-linecap="round"/>
        <rect width="287.817" height="78.2649" fill="black" fill-opacity="0" transform="translate(264.976 722.386)"/>
        <path d="M542.143 742.844C545.91 740.525 550.829 742.726 551.615 747.081L552.693 753.039C553.168 755.679 551.915 758.332 549.578 759.641L537.482 766.412C491.362 792.232 438.661 803.886 385.964 799.879C352.909 797.368 318.248 790.528 286.673 781.06C277.489 778.307 272.385 768.334 275.816 759.375C275.9 759.159 275.984 758.944 276.077 758.728" stroke="#E8E2E8" stroke-width="3.5798" stroke-miterlimit="10" stroke-linecap="round"/>
        <path d="M266.47 722.386C266.47 722.386 260.734 745.059 271.741 756.56C271.741 756.56 411.949 821.568 542.143 742.842" stroke="#E8E2E8" stroke-width="3.5798" stroke-miterlimit="10" stroke-linecap="round"/>
        <path d="M280.984 760.352L282.132 765.913C283.228 771.249 287.211 775.526 292.453 777.001C319.59 784.633 388.582 801.85 449.39 790.597C506.725 779.99 534.658 762.042 542.17 756.533C543.498 755.561 544.199 753.948 544.019 752.31L542.968 742.842" stroke="#E8E2E8" stroke-width="3.5798" stroke-miterlimit="10" stroke-linecap="round"/>
        <rect width="288.081" height="76.8502" fill="black" fill-opacity="0" transform="translate(269.509 756.56)"/>
        <path d="M546.943 775.604C550.71 773.285 555.626 775.486 556.413 779.841L557.489 785.797C557.966 788.439 556.715 791.09 554.376 792.4L542.28 799.17C496.161 824.992 443.459 836.645 390.762 832.638C357.709 830.128 323.046 823.286 291.471 813.82C282.287 811.067 277.185 801.092 280.616 792.132C280.7 791.919 280.784 791.703 280.875 791.487" stroke="#E8E2E8" stroke-width="3.5798" stroke-miterlimit="10" stroke-linecap="round"/>
        <path d="M546.943 775.604C416.749 854.326 276.539 789.322 276.539 789.322C276.539 789.322 264.709 776.603 271.741 756.56" stroke="#E8E2E8" stroke-width="3.5798" stroke-miterlimit="10" stroke-linecap="round"/>
        <path d="M285.784 793.114L286.928 798.673C288.026 804.009 292.009 808.286 297.252 809.76C324.389 817.393 393.381 834.612 454.19 823.359C511.521 812.752 539.458 794.802 546.97 789.295C548.296 788.32 548.998 786.708 548.817 785.072L547.768 775.604" stroke="#E8E2E8" stroke-width="3.5798" stroke-miterlimit="10" stroke-linecap="round"/>
        <rect width="288.185" height="77.9678" fill="black" fill-opacity="0" transform="translate(275.214 789.322)"/>
        <path d="M552.752 809.485C556.518 807.164 561.434 809.367 562.223 813.72L563.298 819.676C563.775 822.318 562.522 824.971 560.185 826.278L548.089 833.05C501.969 858.871 449.266 870.523 396.571 866.518C363.514 864.005 328.855 857.165 297.28 847.699C288.098 844.946 282.994 834.973 286.425 826.012C286.507 825.798 286.593 825.582 286.684 825.367" stroke="#E8E2E8" stroke-width="3.5798" stroke-miterlimit="10" stroke-linecap="round"/>
        <path d="M276.539 789.322C276.539 789.322 274.279 795.09 275.661 804.499C277.268 815.435 284.854 824.569 295.234 828.35C332.77 842.022 446.119 873.962 552.754 809.485" stroke="#E8E2E8" stroke-width="3.5798" stroke-miterlimit="10" stroke-linecap="round"/>
        <path d="M291.593 826.993L292.737 832.554C293.835 837.89 297.817 842.165 303.06 843.638C330.197 851.273 399.187 868.49 459.998 857.24C517.332 846.632 545.267 828.681 552.778 823.173C554.105 822.202 554.806 820.589 554.626 818.951L553.575 809.485" stroke="#E8E2E8" stroke-width="3.5798" stroke-miterlimit="10" stroke-linecap="round"/>
        <rect width="287.042" height="81.4024" fill="black" fill-opacity="0" transform="translate(281.262 820.599)"/>
        <path d="M557.638 841.782C561.402 839.456 566.324 841.65 567.116 846.003L568.202 851.957C568.684 854.598 567.434 857.252 565.097 858.565L553.014 866.182C496.548 897.917 464.65 905.416 401.549 900.722C368.489 898.262 333.823 891.065 302.229 881.649C293.041 878.912 287.919 868.946 291.336 859.98C291.418 859.766 291.505 859.55 291.595 859.335" stroke="#E8E2E8" stroke-width="3.5798" stroke-miterlimit="10" stroke-linecap="round"/>
        <path d="M283.469 820.599C283.469 820.599 274.738 841.52 292.007 858.921C292.007 858.921 370.071 891.384 459.613 881.424C487.319 877.803 529.753 858.706 557.638 841.784" stroke="#E8E2E8" stroke-width="3.5798" stroke-miterlimit="10" stroke-linecap="round"/>
        <path d="M296.513 860.952L297.666 866.511C298.771 871.85 302.769 876.116 308.019 877.583C330.435 883.849 385 895.409 438.675 895.234C458.674 895.168 478.504 891.904 497.267 884.971C532.418 871.983 550.063 861.086 557.7 855.462C559.021 854.49 559.712 852.875 559.526 851.243L558.462 841.78" stroke="#E8E2E8" stroke-width="3.5798" stroke-miterlimit="10" stroke-linecap="round"/>
        <rect width="278.075" height="62.7858" fill="black" fill-opacity="0" transform="translate(294.372 873.709)"/>
        <path d="M561.861 874.805C565.638 872.506 570.538 873.901 571.302 878.262L572.352 884.221C572.816 886.865 571.563 890.339 569.219 891.636L553.769 901.501C495.013 936.08 478.379 940.953 405.433 933.466C372.456 930.079 337.762 925.086 306.229 915.479C297.059 912.685 292 901.561 295.474 892.617C295.556 892.401 295.645 892.187 295.734 891.972" stroke="#E8E2E8" stroke-width="3.5798" stroke-miterlimit="10" stroke-linecap="round"/>
        <path d="M295.742 891.976C295.742 891.976 372.724 922.364 473.001 914.984C500.731 911.529 533.874 891.558 561.861 874.805" stroke="#E8E2E8" stroke-width="3.5798" stroke-miterlimit="10" stroke-linecap="round"/>
        <path d="M300.64 893.617L301.761 899.182C302.835 904.529 306.806 908.821 312.047 910.318C334.424 916.721 388.916 927.489 442.592 927.639C462.594 927.694 476.716 928.757 495.518 921.939C528.469 908.516 554.162 893.237 561.831 887.662C563.159 886.697 563.859 885.087 563.686 883.453L562.689 874.81" stroke="#E8E2E8" stroke-width="3.5798" stroke-miterlimit="10" stroke-linecap="round"/>
        <rect width="276.583" height="65.2766" fill="black" fill-opacity="0" transform="translate(301.875 904.325)"/>
        <path d="M567.713 905.482C571.454 903.123 576.374 904.445 577.206 908.791L578.345 914.736C578.848 917.373 577.648 920.863 575.324 922.198L560.03 932.296C499.654 969.086 487.437 973.654 412.208 967.093C379.184 964.213 344.391 958.057 312.716 948.934C303.505 946.281 299.945 936.362 303.278 927.367C303.358 927.153 301.791 926.935 301.879 926.717" stroke="#E8E2E8" stroke-width="3.5798" stroke-miterlimit="10" stroke-linecap="round"/>
        <path d="M302.711 926.724C306.241 927.816 386.674 955.981 483.041 947.502C510.718 943.625 539.983 922.662 567.715 905.482" stroke="#E8E2E8" stroke-width="3.5798" stroke-miterlimit="10" stroke-linecap="round"/>
        <path d="M306.809 928.289L308.012 933.838C309.169 939.165 313.152 943.609 318.468 944.815C350.389 952.053 376.951 959.583 449.804 962.316C469.265 963.045 481.377 963.088 500.534 955.805C533.276 941.88 560.294 924.029 567.877 918.335C569.189 917.349 569.864 915.727 569.667 914.098L568.537 905.472" stroke="#E8E2E8" stroke-width="3.5798" stroke-miterlimit="10" stroke-linecap="round"/>
        <rect width="289.718" height="116.087" fill="black" fill-opacity="0" transform="translate(292.206 888.069)"/>
        <path d="M310.884 959.251C310.731 972.309 316.134 980.131 324.239 982.232C356.147 990.503 395.075 999.412 428.113 1002.12C503.376 1008.27 503.446 1001.79 563.623 964.679L578.841 954.084C581.161 952.737 582.322 948.827 581.8 946.194L580.629 941.496C579.774 937.153 574.849 935.444 571.119 937.825" stroke="#E8E2E8" stroke-width="3.5798" stroke-miterlimit="10" stroke-linecap="round"/>
        <path d="M292.719 888.069C292.719 888.069 288.912 911.067 302.039 926.539C302.039 926.539 296.27 946.458 311.711 959.365C311.711 959.365 400.505 988.51 488.503 979.899C516.156 975.875 543.484 955.153 571.12 937.825" stroke="#E8E2E8" stroke-width="3.5798" stroke-miterlimit="10" stroke-linecap="round"/>
        <path d="M316.135 961.317L317.568 967.941C318.337 971.668 321.135 974.64 324.806 975.63C349.923 982.393 395.826 992.74 450.079 995.389C470.058 996.366 486.85 997.116 505.508 989.912C538.928 973.077 563.869 956.826 571.422 951.092C572.729 950.101 573.373 948.064 573.166 946.435L571.949 938.641" stroke="#E8E2E8" stroke-width="3.5798" stroke-miterlimit="10" stroke-linecap="round"/>
        <path d="M291.339 859.982C291.339 859.982 282.742 874.024 295.474 892.617" stroke="#E8E2E8" stroke-width="3.5798" stroke-miterlimit="10" stroke-linecap="round"/>
        <rect width="39.6271" height="53.4919" fill="black" fill-opacity="0" transform="translate(572.721 644.341)"/>
        <path fill-rule="evenodd" clip-rule="evenodd" d="M609.684 647.898C609.684 647.898 617.202 659.436 606.977 671.264C600.221 679.078 588.279 690.103 580.951 696.688C578.28 699.087 574.019 697.502 573.561 693.94L572.807 688.092C572.356 684.588 573.689 681.094 576.36 678.785C584.35 671.873 601.185 656.396 606.628 644.341L609.684 647.898Z" stroke="#E8E2E8" stroke-width="3.5798" stroke-miterlimit="10"/>
        <path d="M602.302 652.268C602.302 652.268 616.503 660.117 572.861 691.22" stroke="#E8E2E8" stroke-width="3.5798" stroke-miterlimit="10"/>
        <rect width="39.6273" height="53.491" fill="black" fill-opacity="0" transform="translate(578.584 675.432)"/>
        <path fill-rule="evenodd" clip-rule="evenodd" d="M615.548 678.986C615.548 678.986 623.066 690.525 612.84 702.354C606.083 710.166 594.143 721.191 586.815 727.778C584.146 730.177 579.883 728.589 579.423 725.028L578.671 719.182C578.218 715.677 579.553 712.184 582.223 709.873C590.214 702.961 607.049 687.486 612.493 675.432L615.548 678.986Z" stroke="#E8E2E8" stroke-width="3.5798" stroke-miterlimit="10"/>
        <path d="M608.164 683.358C608.164 683.358 622.365 691.205 578.726 722.31" stroke="#E8E2E8" stroke-width="3.5798" stroke-miterlimit="10"/>
        <rect width="39.6279" height="53.4923" fill="black" fill-opacity="0" transform="translate(583.218 707.883)"/>
        <path fill-rule="evenodd" clip-rule="evenodd" d="M620.182 711.44C620.182 711.44 627.701 722.978 617.474 734.807C610.719 742.621 598.777 753.646 591.449 760.229C588.78 762.63 584.517 761.042 584.057 757.482L583.304 751.635C582.854 748.13 584.189 744.638 586.858 742.326C594.848 735.414 611.685 719.937 617.127 707.883L620.182 711.44Z" stroke="#E8E2E8" stroke-width="3.5798" stroke-miterlimit="10"/>
        <path d="M612.801 715.807C612.801 715.807 627.001 723.658 583.361 754.761" stroke="#E8E2E8" stroke-width="3.5798" stroke-miterlimit="10"/>
        <rect width="39.451" height="52.9911" fill="black" fill-opacity="0" transform="translate(589.248 740.606)"/>
        <path fill-rule="evenodd" clip-rule="evenodd" d="M626.392 744.128C626.392 744.128 633.313 755.558 623.181 767.276C616.49 775.017 604.66 785.937 597.402 792.462C594.758 794.838 590.537 793.268 590.081 789.74L589.334 783.948C588.887 780.478 590.208 777.015 592.857 774.727C600.771 767.88 617.447 752.548 623.365 740.606L626.392 744.128Z" stroke="#E8E2E8" stroke-width="3.5798" stroke-miterlimit="10"/>
        <path d="M618.549 748.457C618.549 748.457 632.619 756.233 589.387 787.044" stroke="#E8E2E8" stroke-width="3.5798" stroke-miterlimit="10"/>
        <rect width="36.4387" height="50.7665" fill="black" fill-opacity="0" transform="translate(603.925 833.404)"/>
        <path fill-rule="evenodd" clip-rule="evenodd" d="M637.915 838.254C637.915 838.254 644.829 848.863 635.425 859.741C629.214 866.924 618.232 877.063 611.494 883.117C609.039 885.323 605.121 883.866 604.696 880.591L604.005 875.214C603.589 871.992 604.816 868.778 607.274 866.656C614.618 860.296 632.204 844.489 637.21 833.404L637.915 838.254Z" stroke="#E8E2E8" stroke-width="3.5798" stroke-miterlimit="10"/>
        <path d="M631.125 842.272C631.125 842.272 644.181 849.49 604.055 878.09" stroke="#E8E2E8" stroke-width="3.5798" stroke-miterlimit="10"/>
        <rect width="35.1371" height="49.7116" fill="black" fill-opacity="0" transform="translate(605.455 866.075)"/>
        <path fill-rule="evenodd" clip-rule="evenodd" d="M639.441 869.871L637.685 866.075C632.679 877.16 616.147 891.917 608.804 898.271C606.346 900.397 605.119 903.609 605.535 906.831L606.226 912.208C606.649 915.484 610.571 916.938 613.025 914.732C619.766 908.676 630.742 898.542 636.951 891.358C639.484 889.301 640.833 886.122 640.557 882.869L639.441 869.871Z" stroke="#E8E2E8" stroke-width="3.5798" stroke-miterlimit="10"/>
        <path d="M632.653 873.891C632.653 873.891 645.709 881.106 605.585 909.707" stroke="#E8E2E8" stroke-width="3.5798" stroke-miterlimit="10"/>
        <rect width="40.2112" height="80.9767" fill="black" fill-opacity="0" transform="translate(593.727 773.893)"/>
        <path fill-rule="evenodd" clip-rule="evenodd" d="M630.344 777.416C630.344 777.416 637.794 788.845 627.661 800.563C620.971 808.306 609.139 819.226 601.883 825.75C599.237 828.127 595.014 826.555 594.56 823.027L593.812 817.236C593.364 813.765 594.689 810.303 597.336 808.014C605.248 801.167 621.926 785.835 627.319 773.893L630.344 777.416Z" stroke="#E8E2E8" stroke-width="3.5798" stroke-miterlimit="10"/>
        <path d="M623.027 781.744C623.027 781.744 637.097 789.52 593.866 820.331" stroke="#E8E2E8" stroke-width="3.5798" stroke-miterlimit="10"/>
        <path d="M633.938 828.549C627.246 836.289 615.418 847.211 608.159 853.735C605.516 856.113 601.292 854.539 600.837 851.012L600.091 845.221C599.643 841.75 600.965 838.286 603.611 835.998C609.718 830.716 628.083 812.257 632.77 801.878" stroke="#E8E2E8" stroke-width="3.5798" stroke-miterlimit="10"/>
        <path d="M628.891 809.317C628.891 809.317 640.175 822.1 600.967 849.555" stroke="#E8E2E8" stroke-width="3.5798" stroke-miterlimit="10"/>
        <path fill-rule="evenodd" clip-rule="evenodd" d="M505.331 569.953C500.37 570.875 495.336 571.336 490.291 571.336H384.475L358.1 577.324L495.216 575.572C501.168 575.495 507.1 574.866 512.937 573.694L551.095 563.964" fill="white"/>
        <path d="M505.331 569.953C500.37 570.875 495.336 571.336 490.291 571.336H384.475L358.1 577.324L495.216 575.572C501.168 575.495 507.1 574.866 512.937 573.694L551.095 563.964" stroke="#E8E2E8" stroke-width="3.5798" stroke-miterlimit="10"/>
        <path d="M528.548 1038.98L523.207 1007.95" stroke="#E8E2E8" stroke-width="3.5798" stroke-miterlimit="10" stroke-linecap="round"/>
        <path d="M517.912 976.716L515.406 964.011" stroke="#E8E2E8" stroke-width="3.5798" stroke-miterlimit="10" stroke-linecap="round"/>
        <path d="M510.902 943.698L508.61 932.912" stroke="#E8E2E8" stroke-width="3.5798" stroke-miterlimit="10" stroke-linecap="round"/>
        <path d="M503.226 911.085L499.817 896.106" stroke="#E8E2E8" stroke-width="3.5798" stroke-miterlimit="10" stroke-linecap="round"/>
        <path d="M495.17 877.013L491.821 860.895" stroke="#E8E2E8" stroke-width="3.5798" stroke-miterlimit="10" stroke-linecap="round"/>
        <path d="M488.185 841.025L485.274 827.071" stroke="#E8E2E8" stroke-width="3.5798" stroke-miterlimit="10" stroke-linecap="round"/>
        <path d="M482.08 808.341L479.167 795.438" stroke="#E8E2E8" stroke-width="3.5798" stroke-miterlimit="10" stroke-linecap="round"/>
        <path d="M475.225 775.299L472.312 761.869" stroke="#E8E2E8" stroke-width="3.5798" stroke-miterlimit="10" stroke-linecap="round"/>
        <path d="M371.076 252.35L403.1 252.524L404.857 293.014" stroke="#E8E2E8" stroke-width="3.5798" stroke-miterlimit="10"/>
        <path d="M403.1 252.524L396.999 248.235" stroke="#E8E2E8" stroke-width="3.5798" stroke-miterlimit="10"/>
        <g opacity="0.9">
            <rect width="395.893" height="89.5685" fill="black" fill-opacity="0" transform="translate(243.148 -6.73616)"/>
            <g opacity="0.9">
                <rect width="395.893" height="89.5685" fill="black" fill-opacity="0" transform="translate(243.148 -6.73616)"/>
                <path opacity="0.9" d="M245.036 7.32432C289.824 63.4307 363.625 82.018 432.469 82.804C501.404 83.59 573.137 68.0592 634.969 37.3533C644.198 32.7712 636.103 18.9822 626.904 23.5482C568.073 52.7643 500.247 66.8141 434.773 66.8302C369.162 66.8463 298.964 49.4256 256.33 -3.97986C249.902 -12.0364 238.676 -0.644692 245.036 7.32432Z" fill="#EAEAEA"/>
            </g>
        </g>
        <rect width="395.893" height="89.5684" fill="black" fill-opacity="0" transform="translate(243.148 -11)"/>
        <rect width="395.893" height="89.5684" fill="black" fill-opacity="0" transform="translate(243.148 -11)"/>
        <path d="M245.036 3.06026C289.824 59.1667 363.625 77.7539 432.469 78.5399C501.404 79.3277 573.139 63.7952 634.969 33.0892C644.198 28.5072 636.103 14.7181 626.904 19.2841C568.073 48.5002 500.247 62.5501 434.773 62.5661C369.162 62.5822 298.964 45.1615 256.33 -8.24568C249.902 -16.2987 238.676 -4.90696 245.036 3.06026Z" fill="white"/>
        <rect width="395.893" height="89.5694" fill="black" fill-opacity="0" transform="translate(243.148 -9.93454)"/>
        <rect width="395.893" height="89.5694" fill="black" fill-opacity="0" transform="translate(243.148 -9.93454)"/>
        <path d="M245.036 4.12672C289.824 60.2331 363.625 78.8204 432.469 79.6064C501.404 80.3941 573.139 64.8616 634.969 34.1557C644.198 29.5736 636.103 15.7846 626.904 20.3506C568.073 49.5667 500.247 63.6165 434.773 63.6326C369.162 63.6487 298.964 46.228 256.33 -7.17924C249.902 -15.234 238.676 -3.84229 245.036 4.12672Z" fill="white"/>
        <rect width="395.893" height="89.5685" fill="black" fill-opacity="0" transform="translate(243.148 -8.86887)"/>
        <rect width="395.893" height="89.5685" fill="black" fill-opacity="0" transform="translate(243.148 -8.86887)"/>
        <path d="M245.036 5.19141C289.824 61.2978 363.625 79.885 432.469 80.6711C501.404 81.4588 573.139 65.9263 634.969 35.2203C644.198 30.6383 636.103 16.8493 626.904 21.4153C568.073 50.6314 500.247 64.6812 434.773 64.6973C369.162 64.7134 298.964 47.2927 256.33 -6.11455C249.902 -14.1675 238.676 -2.77582 245.036 5.19141Z" fill="white"/>
        <rect width="395.893" height="89.5676" fill="black" fill-opacity="0" transform="translate(243.148 -7.80162)"/>
        <rect width="395.893" height="89.5676" fill="black" fill-opacity="0" transform="translate(243.148 -7.80162)"/>
        <path d="M245.036 6.25788C289.824 62.3643 363.625 80.9515 432.469 81.7375C501.404 82.5235 573.137 66.9928 634.969 36.2868C644.198 31.7048 636.103 17.9157 626.904 22.4817C568.073 51.6979 500.247 65.7477 434.773 65.7638C369.162 65.7798 298.964 48.3591 256.33 -5.0463C249.902 -13.1011 238.676 -1.70935 245.036 6.25788Z" fill="white"/>
        <rect width="395.893" height="89.5685" fill="black" fill-opacity="0" transform="translate(243.148 -6.73616)"/>
        <rect width="395.893" height="89.5685" fill="black" fill-opacity="0" transform="translate(243.148 -6.73616)"/>
        <path d="M245.036 7.32432C289.824 63.4307 363.625 82.018 432.469 82.804C501.404 83.59 573.137 68.0592 634.969 37.3533C644.198 32.7712 636.103 18.9822 626.904 23.5482C568.073 52.7643 500.247 66.8141 434.773 66.8302C369.162 66.8463 298.964 49.4256 256.33 -3.97986C249.902 -12.0364 238.676 -0.644692 245.036 7.32432Z" fill="white"/>
        <rect width="395.893" height="89.5675" fill="black" fill-opacity="0" transform="translate(243.148 -5.67047)"/>
        <rect width="395.893" height="89.5675" fill="black" fill-opacity="0" transform="translate(243.148 -5.67047)"/>
        <path d="M245.036 8.38902C289.824 64.4954 363.625 83.0826 432.469 83.8687C501.404 84.6547 573.137 69.1239 634.969 38.418C644.198 33.8359 636.103 20.0469 626.904 24.6129C568.073 53.829 500.247 67.8788 434.773 67.8949C369.162 67.911 298.964 50.4903 256.33 -2.91515C249.902 -10.9699 238.676 0.4218 245.036 8.38902Z" fill="white"/>
        <rect width="395.893" height="89.5694" fill="black" fill-opacity="0" transform="translate(243.148 -4.60579)"/>
        <rect width="395.893" height="89.5694" fill="black" fill-opacity="0" transform="translate(243.148 -4.60579)"/>
        <path d="M245.036 9.45547C289.824 65.5619 363.625 84.1491 432.469 84.9351C501.404 85.7229 573.139 70.1904 634.969 39.4844C644.198 34.9006 636.103 21.1133 626.904 25.6793C568.073 54.8955 500.247 68.9453 434.773 68.9613C369.162 68.9774 298.964 51.5567 256.33 -1.85049C249.902 -9.90525 238.676 1.48646 245.036 9.45547Z" fill="white"/>
        <rect width="395.893" height="89.5685" fill="black" fill-opacity="0" transform="translate(243.148 -3.54012)"/>
        <rect width="395.893" height="89.5685" fill="black" fill-opacity="0" transform="translate(243.148 -3.54012)"/>
        <path d="M245.036 10.5202C289.824 66.6266 363.625 85.2138 432.469 85.9998C501.404 86.7876 573.139 71.2551 634.969 40.5491C644.198 35.9653 636.103 22.178 626.904 26.744C568.073 55.9601 500.247 70.01 434.773 70.0261C369.162 70.0421 298.964 52.6214 256.33 -0.7858C249.902 -8.83877 238.676 2.55294 245.036 10.5202Z" fill="white"/>
        <rect width="395.893" height="89.5685" fill="black" fill-opacity="0" transform="translate(243.148 -2.47365)"/>
        <rect width="395.893" height="89.5685" fill="black" fill-opacity="0" transform="translate(243.148 -2.47365)"/>
        <path d="M245.036 11.5866C289.824 67.693 363.625 86.2803 432.469 87.0663C501.404 87.8541 573.139 72.3215 634.969 41.6156C644.198 37.0317 636.103 23.2445 626.904 27.8105C568.073 57.0266 500.247 71.0764 434.773 71.0925C369.162 71.1086 298.964 53.6879 256.33 0.280667C249.902 -7.7723 238.676 3.6194 245.036 11.5866Z" fill="white"/>
        <rect width="395.893" height="89.5694" fill="black" fill-opacity="0" transform="translate(243.148 -1.40816)"/>
        <rect width="395.893" height="89.5694" fill="black" fill-opacity="0" transform="translate(243.148 -1.40816)"/>
        <path d="M245.036 12.6531C289.824 68.7595 363.625 87.3467 432.469 88.1327C501.404 88.9205 573.139 73.388 634.969 42.682C644.198 38.0982 636.103 24.311 626.904 28.8769C568.073 58.0931 500.247 72.1429 434.773 72.159C369.162 72.1751 298.964 54.7543 256.33 1.34714C249.902 -6.70762 238.676 4.68409 245.036 12.6531Z" fill="white"/>
        <rect width="395.893" height="89.5685" fill="black" fill-opacity="0" transform="translate(243.148 -2.47365)"/>
        <rect width="395.893" height="89.5685" fill="black" fill-opacity="0" transform="translate(243.148 -2.47365)"/>
        <path d="M245.036 11.5866C289.824 67.693 363.625 86.2803 432.469 87.0663C501.404 87.8541 573.139 72.3215 634.969 41.6156C644.198 37.0317 636.103 23.2445 626.904 27.8105C568.073 57.0266 500.247 71.0764 434.773 71.0925C369.162 71.1086 298.964 53.6879 256.33 0.280667C249.902 -7.7723 238.676 3.6194 245.036 11.5866Z" fill="white"/>
        <rect width="395.893" height="89.5685" fill="black" fill-opacity="0" transform="translate(243.148 -3.54012)"/>
        <rect width="395.893" height="89.5685" fill="black" fill-opacity="0" transform="translate(243.148 -3.54012)"/>
        <path d="M245.036 10.5202C289.824 66.6266 363.625 85.2138 432.469 85.9998C501.404 86.7876 573.139 71.2551 634.969 40.5491C644.198 35.9653 636.103 22.178 626.904 26.744C568.073 55.9601 500.247 70.01 434.773 70.0261C369.162 70.0421 298.964 52.6214 256.33 -0.7858C249.902 -8.83877 238.676 2.55294 245.036 10.5202Z" fill="white"/>
        <rect width="395.893" height="89.5685" fill="black" fill-opacity="0" transform="translate(243.148 -2.47365)"/>
        <rect width="395.893" height="89.5685" fill="black" fill-opacity="0" transform="translate(243.148 -2.47365)"/>
        <path d="M245.036 11.5866C289.824 67.693 363.625 86.2803 432.469 87.0663C501.404 87.8541 573.139 72.3215 634.969 41.6156C644.198 37.0317 636.103 23.2445 626.904 27.8105C568.073 57.0266 500.247 71.0764 434.773 71.0925C369.162 71.1086 298.964 53.6879 256.33 0.280667C249.902 -7.7723 238.676 3.6194 245.036 11.5866Z" fill="white"/>
        <g opacity="0.9">
            <rect width="395.893" height="89.5676" fill="black" fill-opacity="0" transform="translate(243.148 -7.80162)"/>
            <g opacity="0.9">
                <rect width="395.893" height="89.5676" fill="black" fill-opacity="0" transform="translate(243.148 -7.80162)"/>
                <path opacity="0.9" d="M245.036 6.25788C289.824 62.3643 363.625 80.9515 432.469 81.7375C501.404 82.5235 573.137 66.9928 634.969 36.2868C644.198 31.7048 636.103 17.9157 626.904 22.4817C568.073 51.6979 500.247 65.7477 434.773 65.7638C369.162 65.7798 298.964 48.3591 256.33 -5.0463C249.902 -13.1011 238.676 -1.70935 245.036 6.25788Z" fill="#EAEAEA"/>
            </g>
        </g>
        <rect width="17.9199" height="37.8962" fill="black" fill-opacity="0" transform="translate(301.619 32.3276)"/>
        <rect width="17.9199" height="37.8962" fill="black" fill-opacity="0" transform="translate(301.619 32.3276)"/>
        <path d="M314.349 34.2539C313.246 40.1186 310.381 45.149 307.873 50.4921C305.386 55.7887 303.437 61.3443 301.746 66.9392C300.75 70.2368 305.891 71.6356 306.882 68.3558C310.236 57.2428 317.343 47.039 319.485 35.6705C320.118 32.3121 314.986 30.8795 314.349 34.2539Z" fill="#EDD3F2"/>
        <rect width="5.97414" height="41.5442" fill="black" fill-opacity="0" transform="translate(387.921 53.9049)"/>
        <rect width="5.97414" height="41.5442" fill="black" fill-opacity="0" transform="translate(387.921 53.9049)"/>
        <path d="M388.098 56.4586C389.273 68.6041 387.884 80.7104 387.922 92.872C387.932 96.3072 393.256 96.309 393.245 92.872C393.207 80.7104 394.598 68.6041 393.422 56.4586C393.093 53.0698 387.766 53.0377 388.098 56.4586Z" fill="#E8E2E7"/>
    </g>
</svg>
